<svg width="370.81" height="113.56" enable-background="new 336.7 357.7 258.7 113.5" version="1.1" viewBox="336.7 357.7 370.81 113.56" xmlns="http://www.w3.org/2000/svg">
    <g fill="#e00d6f">
        <path d="m401.06 438.06c-0.3 0-0.3 0 0 0-4.7-18.4-23.8-16.5-26.9-29-2.1-8.8 3.6-15.5 12.4-17.6 5.2-1.3 10.3 0 14.2 3.4 0.5 0.5 1.3 1 1.8 1.8 0 0.3 0.3 0.3 0.3 0.5l0.6 0.6c0.8 1 1.3 1.8 2.1 1.6 0.5-0.3 1-1.6 1-2.3 0.5-4.1 0.3-8.3-0.8-12.7-4.7-18.9-23.5-30.3-42.4-25.6s-30.3 23.5-25.6 42.4c6.2 25.3 30 29.5 42.7 35.9 2.8 1.3 4.9 3.9 5.7 7 1.3 5.7-2.1 11.4-7.8 12.7h-0.5c-1 0.3-1.3 0-1.3 0.5 0 0.3 0.8 0.8 1.3 1 3.1 1.3 6.7 1.6 10.3 0.5 9.3-2 14.9-11.3 12.9-20.7z"/>
        <path d="m451.76 430.36h-1.3c-1.8 0-3.1 0.5-3.9 1 0 0-0.3 0-0.3 0.3-1.6 1-2.1 2.6-2.1 2.6l-7.5 23.8c-0.3 0.8 0.3 1.6 1.3 1.6h4.9c1 0 1.8-0.8 2.1-1.6l8-26.1c0.1-0.8-0.5-1.6-1.2-1.6"/>
        <path d="m447.06 427.76h5.4c1.6-0.3 2.3-1.8 2.3-2.6s-0.8-1.6-2.6-1.6c-1.5 0.1-5.1 1.1-5.1 4.2v0"/>
        <path d="m485.56 444.56c2.8-14.2-9.3-14.2-14-13.7-0.3 0-0.8 0.3-1.3 0.3-3.9 0.5-4.1 0.8-4.9 0.5-0.3 0-0.5 0-0.5-0.3-0.3-0.3-0.3-0.3-0.5-0.3-1.3-0.8-2.6-0.5-2.6-0.5h-0.3c-1 0-1.8 0.8-2.1 1.6l-11.6 37s-0.8 2.1 1.6 2.1h0.8s5.9 0.5 8.8-8l7.2-23.5c-1.3-0.5-1.8-0.8-2.6-1.3-1.6-1-1.6-2.1-0.5-1.8 1 0.3 2.3 0.8 6.7 0.5 6.7 0 7.8 8 4.1 13.7-2.1 3.4-4.1 4.1-6.5 4.9-0.5 0.3-1.3 0.5-1.8 0.5s-2.1 0.3-2.1 1c0 0.5 0.5 1 1.6 1 1 0.3 2.3 0.3 3.6 0.3 5.6 0.5 15.1-3.7 16.9-14 0-0.3-0.2 0.5 0 0"/>
        <path d="m435.66 444.56c2.8-14.2-9.3-14.2-14-13.7-0.3 0-0.8 0.3-1.3 0.3-3.9 0.5-4.1 0.8-4.9 0.5-0.3 0-0.5 0-0.5-0.3-0.3-0.3-0.3-0.3-0.5-0.3-1.3-0.8-2.6-0.5-2.6-0.5h-0.3c-1 0-1.8 0.8-2.1 1.6l-11.4 37s-0.8 2.1 1.6 2.1h0.8s5.9 0.5 8.8-8l8-25.9h3.1c6.7 0 7.8 8 4.1 13.7-2.1 3.4-4.1 4.1-6.5 4.9-0.5 0.3-1.3 0.5-1.8 0.5s-2.1 0.3-2.1 1c0 0.5 0.5 1 1.6 1 1 0.3 2.3 0.3 3.6 0.3 5.1 0.3 14.9-3.9 16.4-14.2v0"/>
    </g>
    <g fill="#e00d6f">
        <path d="m522.69 418.81h9.375l-7.8906 40.521h-9.349z"/>
        <path d="m551.47 435.38q-3.6198 0-5.9635 3.2812t-2.3438 8.3594q0 2.7604 1.25 4.2188 1.276 1.4323 3.6979 1.4323 3.6198 0 5.9635-3.2812 2.3438-3.3073 2.3438-8.4114 0-2.7344-1.276-4.1667-1.25-1.4323-3.6719-1.4323zm0.7552-6.6667q6.5104 0 10.234 3.3073 3.724 3.3073 3.724 9.0104 0 3.3073-1.1719 6.4323-1.1719 3.099-3.4115 5.6771-2.6562 3.0729-6.276 4.6354t-8.0729 1.5625q-6.4323 0-10.156-3.3073-3.6979-3.3073-3.6979-9.0104 0-3.2812 1.1979-6.4062 1.1979-3.151 3.4375-5.7552 2.6042-3.0208 6.1979-4.5833 3.6198-1.5625 7.9948-1.5625z"/>
        <path d="m585.66 445.46q-3.4896 0-5.2864 1.0938-1.7708 1.0677-1.7708 3.1771 0 1.5885 1.0417 2.5 1.0677 0.91146 2.9167 0.91146 2.8646 0 4.7917-1.7188 1.9271-1.7448 2.5781-4.8958l0.20834-1.0677zm14.557-3.5156-3.2552 16.641h-9.3229l0.78125-4.3229q-2.2917 2.6042-4.8438 3.8542-2.5521 1.224-5.5469 1.224-4.1406 0-6.5885-2.1354-2.4219-2.1614-2.4219-5.8073 0-5.5729 4.2969-8.5156 4.3229-2.9688 12.448-2.9688h5.4948l0.10417-0.72917q0.0781-0.36458 0.0781-0.52083 0.026-0.15625 0.026-0.28646 0-1.7188-1.6406-2.5781-1.6146-0.88542-4.8177-0.88542-2.8906 0-5.599 0.59896t-5.2344 1.7969l1.4062-7.1094q2.9167-0.72916 5.9635-1.0938 3.0729-0.39062 6.3542-0.39062 6.4844 0 9.6354 2.2396 3.151 2.2135 3.151 6.7708 0 0.88542-0.13021 1.9531-0.10417 1.0417-0.33854 2.2656z"/>
        <path d="m620.48 452.56q3.5937 0 5.8333-3.3073 2.2656-3.3073 2.2656-8.6458 0-2.4219-1.276-3.776-1.25-1.3542-3.5156-1.3542-3.5417 0-5.8333 3.2812-2.2917 3.2552-2.2917 8.3594 0 2.6562 1.224 4.0625 1.25 1.3802 3.5938 1.3802zm9.8177-18.88 3.0208-15.625h9.401l-7.8906 40.521h-9.401l0.85937-4.2188q-2.1354 2.5521-4.4792 3.776-2.3438 1.1979-5.1302 1.1979-4.9219 0-7.7865-3.125t-2.8646-8.5156q0-3.3594 0.98958-6.5364 1.0156-3.1771 2.8906-5.7812 2.3698-3.2812 5.3385-4.974 2.9948-1.6927 6.4062-1.6927 2.9948 0 5.0781 1.224 2.1094 1.1979 3.5677 3.75z"/>
        <path d="m675.81 445.09-0.3125 1.4844h-21.823q0 0.15625-0.026 0.46875-0.026 0.28646-0.026 0.44271 0 2.8385 1.6927 4.2448 1.7188 1.4062 5.1302 1.4062 2.9427 0 6.1979-0.88542 3.2812-0.88542 6.875-2.6302l-1.4323 7.2396q-3.4115 1.25-6.7969 1.849-3.3594 0.625-6.849 0.625-6.8229 0-10.547-3.151-3.6979-3.151-3.6979-8.9062 0-3.3333 1.1719-6.4583 1.1979-3.151 3.4635-5.7552 2.6823-3.125 6.4062-4.7396 3.75-1.6146 8.3073-1.6146 5.9114 0 9.375 3.151 3.4896 3.151 3.4896 8.4896 0 1.0417-0.15625 2.2135-0.13021 1.1458-0.44271 2.526zm-8.8021-4.2708q0.0781-0.33855 0.10417-0.67709 0.0521-0.36458 0.0521-0.70312 0-2.0833-1.25-3.3073t-3.3854-1.224q-2.7344 0-4.6615 1.5104-1.901 1.4844-2.9167 4.401z"/>
        <path d="m705.87 438.11q-0.96354-0.54688-2.1354-0.83334-1.1719-0.28645-2.526-0.28645-3.5677 0-5.9375 2.2917-2.3438 2.2917-3.1771 6.6146l-2.6562 13.437h-9.349l5.6771-29.167h9.375l-1.0156 5q1.849-2.7604 4.6094-4.2188 2.7865-1.4844 6.1719-1.4844 0.49479 0 1.1198 0.0521t1.4844 0.15625z"/>
		<path d="m108.46 524.37v3.724h-27.708v-3.724z" transform="translate(404.25 -68.76)"/>
    </g>
</svg>
